20130627052401,24,41
20130627052501,24,41
20130627052602,24,41
20130627052701,24,41
20130627052801,24,41
20130627053001,24,41
20130627053101,24,41
20130627053201,24,41
20130627053301,24,41
20130627053501,24,41
20130627054001,24,41
20130627054101,24,42
20130627054201,24,41
20130627054301,24,41
20130627054402,24,41
20130627054501,24,41
20130627054601,24,41
20130627054801,24,41
20130627054901,24,41
20130627055001,24,41
20130627055102,24,41
20130627055201,24,41
20130627055301,24,41
20130627055401,24,41
20130627055501,24,41
20130627055601,24,41
20130627055701,24,41
20130627055802,24,41
